{
  "artists": {
    "href": "https://api.spotify.com/v1/search?query=P%21nk&type=artist&offset=0&limit=20",
    "items": [
      {
        "external_urls": {
          "spotify": "https://open.spotify.com/artist/1KCSPY1glIKqW2TotWuXOR"
        },
        "followers": { "href": null, "total": 15317546 },
        "genres": ["dance pop", "pop"],
        "href": "https://api.spotify.com/v1/artists/1KCSPY1glIKqW2TotWuXOR",
        "id": "1KCSPY1glIKqW2TotWuXOR",
        "images": [
          {
            "height": 640,
            "url": "https://i.scdn.co/image/ab6761610000e5eb7bbad89a61061304ec842588",
            "width": 640
          },
          {
            "height": 320,
            "url": "https://i.scdn.co/image/ab676161000051747bbad89a61061304ec842588",
            "width": 320
          },
          {
            "height": 160,
            "url": "https://i.scdn.co/image/ab6761610000f1787bbad89a61061304ec842588",
            "width": 160
          }
        ],
        "name": "P!nk",
        "popularity": 81,
        "type": "artist",
        "uri": "spotify:artist:1KCSPY1glIKqW2TotWuXOR"
      },
      {
        "external_urls": {
          "spotify": "https://open.spotify.com/artist/5SF563nnoaEb34o2g4AkKH"
        },
        "followers": { "href": null, "total": 21 },
        "genres": [],
        "href": "https://api.spotify.com/v1/artists/5SF563nnoaEb34o2g4AkKH",
        "id": "5SF563nnoaEb34o2g4AkKH",
        "images": [
          {
            "height": 640,
            "url": "https://i.scdn.co/image/ab67616d0000b27376aa1a057a34bd161a1a01c8",
            "width": 640
          },
          {
            "height": 300,
            "url": "https://i.scdn.co/image/ab67616d00001e0276aa1a057a34bd161a1a01c8",
            "width": 300
          },
          {
            "height": 64,
            "url": "https://i.scdn.co/image/ab67616d000048511323415fdf7ddfe8f7b3be82",
            "width": 64
          }
        ],
        "name": "PiNK",
        "popularity": 0,
        "type": "artist",
        "uri": "spotify:artist:5SF563nnoaEb34o2g4AkKH"
      },
      {
        "external_urls": {
          "spotify": "https://open.spotify.com/artist/1kTFIld6zZvuYvR1q6VIMm"
        },
        "followers": { "href": null, "total": 3 },
        "genres": [],
        "href": "https://api.spotify.com/v1/artists/1kTFIld6zZvuYvR1q6VIMm",
        "id": "1kTFIld6zZvuYvR1q6VIMm",
        "images": [
          {
            "height": 640,
            "url": "https://i.scdn.co/image/ab67616d0000b2732f0e19d5bd7eeb945e08d549",
            "width": 640
          },
          {
            "height": 300,
            "url": "https://i.scdn.co/image/ab67616d00001e022f0e19d5bd7eeb945e08d549",
            "width": 300
          },
          {
            "height": 64,
            "url": "https://i.scdn.co/image/ab67616d000048512f0e19d5bd7eeb945e08d549",
            "width": 64
          }
        ],
        "name": "P!nk tape",
        "popularity": 0,
        "type": "artist",
        "uri": "spotify:artist:1kTFIld6zZvuYvR1q6VIMm"
      },
      {
        "external_urls": {
          "spotify": "https://open.spotify.com/artist/6gwu3mdkedQzoKGo7ri3sK"
        },
        "followers": { "href": null, "total": 13 },
        "genres": [],
        "href": "https://api.spotify.com/v1/artists/6gwu3mdkedQzoKGo7ri3sK",
        "id": "6gwu3mdkedQzoKGo7ri3sK",
        "images": [
          {
            "height": 640,
            "url": "https://i.scdn.co/image/ab67616d0000b273492a7caf85252db5ac2b9dbf",
            "width": 640
          },
          {
            "height": 300,
            "url": "https://i.scdn.co/image/ab67616d00001e02492a7caf85252db5ac2b9dbf",
            "width": 300
          },
          {
            "height": 64,
            "url": "https://i.scdn.co/image/ab67616d00004851492a7caf85252db5ac2b9dbf",
            "width": 64
          }
        ],
        "name": "P!nkman",
        "popularity": 0,
        "type": "artist",
        "uri": "spotify:artist:6gwu3mdkedQzoKGo7ri3sK"
      },
      {
        "external_urls": {
          "spotify": "https://open.spotify.com/artist/1fxanPvwSHo4Yvb2zWJw4S"
        },
        "followers": { "href": null, "total": 13 },
        "genres": [],
        "href": "https://api.spotify.com/v1/artists/1fxanPvwSHo4Yvb2zWJw4S",
        "id": "1fxanPvwSHo4Yvb2zWJw4S",
        "images": [
          {
            "height": 640,
            "url": "https://i.scdn.co/image/ab67616d0000b2734eb579637718c4d092a98a0e",
            "width": 640
          },
          {
            "height": 300,
            "url": "https://i.scdn.co/image/ab67616d00001e024eb579637718c4d092a98a0e",
            "width": 300
          },
          {
            "height": 64,
            "url": "https://i.scdn.co/image/ab67616d000048514eb579637718c4d092a98a0e",
            "width": 64
          }
        ],
        "name": "P!nkPanther",
        "popularity": 0,
        "type": "artist",
        "uri": "spotify:artist:1fxanPvwSHo4Yvb2zWJw4S"
      },
      {
        "external_urls": {
          "spotify": "https://open.spotify.com/artist/5l91RBz1cLZgEs3oTPEsCU"
        },
        "followers": { "href": null, "total": 0 },
        "genres": [],
        "href": "https://api.spotify.com/v1/artists/5l91RBz1cLZgEs3oTPEsCU",
        "id": "5l91RBz1cLZgEs3oTPEsCU",
        "images": [],
        "name": "P!nkGapY",
        "popularity": 1,
        "type": "artist",
        "uri": "spotify:artist:5l91RBz1cLZgEs3oTPEsCU"
      },
      {
        "external_urls": {
          "spotify": "https://open.spotify.com/artist/0oF8wnYOghIt7EEpQY0Z6h"
        },
        "followers": { "href": null, "total": 136 },
        "genres": [],
        "href": "https://api.spotify.com/v1/artists/0oF8wnYOghIt7EEpQY0Z6h",
        "id": "0oF8wnYOghIt7EEpQY0Z6h",
        "images": [
          {
            "height": 640,
            "url": "https://i.scdn.co/image/ab67616d0000b273d2bf69992c418be063a90910",
            "width": 640
          },
          {
            "height": 300,
            "url": "https://i.scdn.co/image/ab67616d00001e02d2bf69992c418be063a90910",
            "width": 300
          },
          {
            "height": 64,
            "url": "https://i.scdn.co/image/ab67616d00004851d2bf69992c418be063a90910",
            "width": 64
          }
        ],
        "name": "Mr. P!nk",
        "popularity": 2,
        "type": "artist",
        "uri": "spotify:artist:0oF8wnYOghIt7EEpQY0Z6h"
      },
      {
        "external_urls": {
          "spotify": "https://open.spotify.com/artist/6jMZfqnPp6jlx5CZjfrCxB"
        },
        "followers": { "href": null, "total": 220 },
        "genres": [],
        "href": "https://api.spotify.com/v1/artists/6jMZfqnPp6jlx5CZjfrCxB",
        "id": "6jMZfqnPp6jlx5CZjfrCxB",
        "images": [
          {
            "height": 640,
            "url": "https://i.scdn.co/image/ab67616d0000b273aa871a76dc128dafc09175b3",
            "width": 640
          },
          {
            "height": 300,
            "url": "https://i.scdn.co/image/ab67616d00001e02aa871a76dc128dafc09175b3",
            "width": 300
          },
          {
            "height": 64,
            "url": "https://i.scdn.co/image/ab67616d00004851aa871a76dc128dafc09175b3",
            "width": 64
          }
        ],
        "name": "PNK",
        "popularity": 0,
        "type": "artist",
        "uri": "spotify:artist:6jMZfqnPp6jlx5CZjfrCxB"
      },
      {
        "external_urls": {
          "spotify": "https://open.spotify.com/artist/60oos2GH0EvWZa4LSQhlGl"
        },
        "followers": { "href": null, "total": 26 },
        "genres": [],
        "href": "https://api.spotify.com/v1/artists/60oos2GH0EvWZa4LSQhlGl",
        "id": "60oos2GH0EvWZa4LSQhlGl",
        "images": [
          {
            "height": 640,
            "url": "https://i.scdn.co/image/ab6761610000e5eb0c3b590551df6866c9f2d09b",
            "width": 640
          },
          {
            "height": 320,
            "url": "https://i.scdn.co/image/ab676161000051740c3b590551df6866c9f2d09b",
            "width": 320
          },
          {
            "height": 160,
            "url": "https://i.scdn.co/image/ab6761610000f1780c3b590551df6866c9f2d09b",
            "width": 160
          }
        ],
        "name": "A$HLAND P!NKBOY$",
        "popularity": 0,
        "type": "artist",
        "uri": "spotify:artist:60oos2GH0EvWZa4LSQhlGl"
      },
      {
        "external_urls": {
          "spotify": "https://open.spotify.com/artist/23wpmGTgmjfWTtahN3gMvM"
        },
        "followers": { "href": null, "total": 15 },
        "genres": [],
        "href": "https://api.spotify.com/v1/artists/23wpmGTgmjfWTtahN3gMvM",
        "id": "23wpmGTgmjfWTtahN3gMvM",
        "images": [
          {
            "height": 640,
            "url": "https://i.scdn.co/image/ab6761610000e5eb80acac7aacbd2c522994a1e0",
            "width": 640
          },
          {
            "height": 320,
            "url": "https://i.scdn.co/image/ab6761610000517480acac7aacbd2c522994a1e0",
            "width": 320
          },
          {
            "height": 160,
            "url": "https://i.scdn.co/image/ab6761610000f17880acac7aacbd2c522994a1e0",
            "width": 160
          }
        ],
        "name": "P!nkGapY",
        "popularity": 1,
        "type": "artist",
        "uri": "spotify:artist:23wpmGTgmjfWTtahN3gMvM"
      },
      {
        "external_urls": {
          "spotify": "https://open.spotify.com/artist/2Lky2xZOvTPdIwlARtUDaW"
        },
        "followers": { "href": null, "total": 6 },
        "genres": [],
        "href": "https://api.spotify.com/v1/artists/2Lky2xZOvTPdIwlARtUDaW",
        "id": "2Lky2xZOvTPdIwlARtUDaW",
        "images": [
          {
            "height": 640,
            "url": "https://i.scdn.co/image/ab67616d0000b273cbd66be35f04c836de37255f",
            "width": 640
          },
          {
            "height": 300,
            "url": "https://i.scdn.co/image/ab67616d00001e02cbd66be35f04c836de37255f",
            "width": 300
          },
          {
            "height": 64,
            "url": "https://i.scdn.co/image/ab67616d00004851cbd66be35f04c836de37255f",
            "width": 64
          }
        ],
        "name": "Mr. P!nk & CJ Stone feat. Nicole Tyler",
        "popularity": 0,
        "type": "artist",
        "uri": "spotify:artist:2Lky2xZOvTPdIwlARtUDaW"
      },
      {
        "external_urls": {
          "spotify": "https://open.spotify.com/artist/3QzIK4jmyf2E799Eq79snb"
        },
        "followers": { "href": null, "total": 60 },
        "genres": [],
        "href": "https://api.spotify.com/v1/artists/3QzIK4jmyf2E799Eq79snb",
        "id": "3QzIK4jmyf2E799Eq79snb",
        "images": [
          {
            "height": 640,
            "url": "https://i.scdn.co/image/ab6761610000e5eb05556e338d7d208fb9b2042f",
            "width": 640
          },
          {
            "height": 320,
            "url": "https://i.scdn.co/image/ab6761610000517405556e338d7d208fb9b2042f",
            "width": 320
          },
          {
            "height": 160,
            "url": "https://i.scdn.co/image/ab6761610000f17805556e338d7d208fb9b2042f",
            "width": 160
          }
        ],
        "name": "P!nkmen",
        "popularity": 0,
        "type": "artist",
        "uri": "spotify:artist:3QzIK4jmyf2E799Eq79snb"
      },
      {
        "external_urls": {
          "spotify": "https://open.spotify.com/artist/1vLPW52pGIXKKkcmKivXo5"
        },
        "followers": { "href": null, "total": 22445 },
        "genres": ["venezuelan hip hop"],
        "href": "https://api.spotify.com/v1/artists/1vLPW52pGIXKKkcmKivXo5",
        "id": "1vLPW52pGIXKKkcmKivXo5",
        "images": [
          {
            "height": 640,
            "url": "https://i.scdn.co/image/ab6761610000e5ebdd614d714c9763cbe74c0c33",
            "width": 640
          },
          {
            "height": 320,
            "url": "https://i.scdn.co/image/ab67616100005174dd614d714c9763cbe74c0c33",
            "width": 320
          },
          {
            "height": 160,
            "url": "https://i.scdn.co/image/ab6761610000f178dd614d714c9763cbe74c0c33",
            "width": 160
          }
        ],
        "name": "Nk Profeta",
        "popularity": 32,
        "type": "artist",
        "uri": "spotify:artist:1vLPW52pGIXKKkcmKivXo5"
      },
      {
        "external_urls": {
          "spotify": "https://open.spotify.com/artist/2ur0GHc7zvYZXe0WjIKd2K"
        },
        "followers": { "href": null, "total": 3709 },
        "genres": [],
        "href": "https://api.spotify.com/v1/artists/2ur0GHc7zvYZXe0WjIKd2K",
        "id": "2ur0GHc7zvYZXe0WjIKd2K",
        "images": [
          {
            "height": 640,
            "url": "https://i.scdn.co/image/ab6761610000e5eb8ea1fe735d399a08a77ab00a",
            "width": 640
          },
          {
            "height": 320,
            "url": "https://i.scdn.co/image/ab676161000051748ea1fe735d399a08a77ab00a",
            "width": 320
          },
          {
            "height": 160,
            "url": "https://i.scdn.co/image/ab6761610000f1788ea1fe735d399a08a77ab00a",
            "width": 160
          }
        ],
        "name": "Priyanka NK",
        "popularity": 42,
        "type": "artist",
        "uri": "spotify:artist:2ur0GHc7zvYZXe0WjIKd2K"
      },
      {
        "external_urls": {
          "spotify": "https://open.spotify.com/artist/11IZ0aKYrXDGblgNYvIzRj"
        },
        "followers": { "href": null, "total": 245 },
        "genres": [],
        "href": "https://api.spotify.com/v1/artists/11IZ0aKYrXDGblgNYvIzRj",
        "id": "11IZ0aKYrXDGblgNYvIzRj",
        "images": [
          {
            "height": 640,
            "url": "https://i.scdn.co/image/ab67616d0000b273cca7285bbbcc4d9341600e56",
            "width": 640
          },
          {
            "height": 300,
            "url": "https://i.scdn.co/image/ab67616d00001e02cca7285bbbcc4d9341600e56",
            "width": 300
          },
          {
            "height": 64,
            "url": "https://i.scdn.co/image/ab67616d00004851cca7285bbbcc4d9341600e56",
            "width": 64
          }
        ],
        "name": "P6nk",
        "popularity": 7,
        "type": "artist",
        "uri": "spotify:artist:11IZ0aKYrXDGblgNYvIzRj"
      },
      {
        "external_urls": {
          "spotify": "https://open.spotify.com/artist/2DUBeLeFU8MPbbT2N5xiGC"
        },
        "followers": { "href": null, "total": 4168 },
        "genres": ["rwandan gospel"],
        "href": "https://api.spotify.com/v1/artists/2DUBeLeFU8MPbbT2N5xiGC",
        "id": "2DUBeLeFU8MPbbT2N5xiGC",
        "images": [
          {
            "height": 640,
            "url": "https://i.scdn.co/image/ab67616d0000b273b0bdf80013c3ec6ff18aed97",
            "width": 640
          },
          {
            "height": 300,
            "url": "https://i.scdn.co/image/ab67616d00001e02b0bdf80013c3ec6ff18aed97",
            "width": 300
          },
          {
            "height": 64,
            "url": "https://i.scdn.co/image/ab67616d00004851b0bdf80013c3ec6ff18aed97",
            "width": 64
          }
        ],
        "name": "Prosper Nkomezi",
        "popularity": 18,
        "type": "artist",
        "uri": "spotify:artist:2DUBeLeFU8MPbbT2N5xiGC"
      },
      {
        "external_urls": {
          "spotify": "https://open.spotify.com/artist/2UbnWFy4nkTE4qEa08a3NI"
        },
        "followers": { "href": null, "total": 16 },
        "genres": [],
        "href": "https://api.spotify.com/v1/artists/2UbnWFy4nkTE4qEa08a3NI",
        "id": "2UbnWFy4nkTE4qEa08a3NI",
        "images": [
          {
            "height": 640,
            "url": "https://i.scdn.co/image/ab6761610000e5eb994265a76dd8855334eb31fa",
            "width": 640
          },
          {
            "height": 320,
            "url": "https://i.scdn.co/image/ab67616100005174994265a76dd8855334eb31fa",
            "width": 320
          },
          {
            "height": 160,
            "url": "https://i.scdn.co/image/ab6761610000f178994265a76dd8855334eb31fa",
            "width": 160
          }
        ],
        "name": "PROD NKG OFC",
        "popularity": 21,
        "type": "artist",
        "uri": "spotify:artist:2UbnWFy4nkTE4qEa08a3NI"
      },
      {
        "external_urls": {
          "spotify": "https://open.spotify.com/artist/3cQ9rZJC8JGdJWbqDtfRTj"
        },
        "followers": { "href": null, "total": 308 },
        "genres": [],
        "href": "https://api.spotify.com/v1/artists/3cQ9rZJC8JGdJWbqDtfRTj",
        "id": "3cQ9rZJC8JGdJWbqDtfRTj",
        "images": [
          {
            "height": 640,
            "url": "https://i.scdn.co/image/ab6761610000e5ebfed68ea28a8fa23050268fd6",
            "width": 640
          },
          {
            "height": 320,
            "url": "https://i.scdn.co/image/ab67616100005174fed68ea28a8fa23050268fd6",
            "width": 320
          },
          {
            "height": 160,
            "url": "https://i.scdn.co/image/ab6761610000f178fed68ea28a8fa23050268fd6",
            "width": 160
          }
        ],
        "name": "P6nk",
        "popularity": 6,
        "type": "artist",
        "uri": "spotify:artist:3cQ9rZJC8JGdJWbqDtfRTj"
      },
      {
        "external_urls": {
          "spotify": "https://open.spotify.com/artist/7xjEKxrwlHhpgWMnK3UgGi"
        },
        "followers": { "href": null, "total": 14 },
        "genres": [],
        "href": "https://api.spotify.com/v1/artists/7xjEKxrwlHhpgWMnK3UgGi",
        "id": "7xjEKxrwlHhpgWMnK3UgGi",
        "images": [
          {
            "height": 640,
            "url": "https://i.scdn.co/image/ab67616d0000b273ca89b4367d89fdc170cb5449",
            "width": 640
          },
          {
            "height": 300,
            "url": "https://i.scdn.co/image/ab67616d00001e02ca89b4367d89fdc170cb5449",
            "width": 300
          },
          {
            "height": 64,
            "url": "https://i.scdn.co/image/ab67616d00004851ca89b4367d89fdc170cb5449",
            "width": 64
          }
        ],
        "name": "PX1NKWAVE",
        "popularity": 9,
        "type": "artist",
        "uri": "spotify:artist:7xjEKxrwlHhpgWMnK3UgGi"
      },
      {
        "external_urls": {
          "spotify": "https://open.spotify.com/artist/6sDS4u2Eik5A1WZvuyWZP6"
        },
        "followers": { "href": null, "total": 5 },
        "genres": [],
        "href": "https://api.spotify.com/v1/artists/6sDS4u2Eik5A1WZvuyWZP6",
        "id": "6sDS4u2Eik5A1WZvuyWZP6",
        "images": [
          {
            "height": 640,
            "url": "https://i.scdn.co/image/ab67616d0000b2732c3367cb25ca801c33ff9781",
            "width": 640
          },
          {
            "height": 300,
            "url": "https://i.scdn.co/image/ab67616d00001e022c3367cb25ca801c33ff9781",
            "width": 300
          },
          {
            "height": 64,
            "url": "https://i.scdn.co/image/ab67616d000048512c3367cb25ca801c33ff9781",
            "width": 64
          }
        ],
        "name": "P!nkyB1ing(P!nkos)",
        "popularity": 0,
        "type": "artist",
        "uri": "spotify:artist:6sDS4u2Eik5A1WZvuyWZP6"
      }
    ],
    "limit": 20,
    "next": "https://api.spotify.com/v1/search?query=P%21nk&type=artist&offset=20&limit=20",
    "offset": 0,
    "previous": null,
    "total": 255
  }
}
